{
  "_embedded": {
    "articlesWrong": [
      {
        "title": "Linux之父Linus的8个趣闻轶事",
        "publishTime": "2018-08-01T00:00:00",
        "lmt": "2018-08-15T13:58:18",
        "_links": {
          "self": {
            "href": "http://localhost:8080/api/articles/1"
          },
          "article": {
            "href": "http://localhost:8080/api/articles/1"
          },
          "categories": {
            "href": "http://localhost:8080/api/articles/1/categories"
          }
        }
      },
      {
        "title": "安·兰德和她创造的世界",
        "publishTime": "2018-08-01T00:00:00",
        "lmt": "2018-08-15T13:58:18",
        "_links": {
          "self": {
            "href": "http://localhost:8080/api/articles/2"
          },
          "article": {
            "href": "http://localhost:8080/api/articles/2"
          },
          "categories": {
            "href": "http://localhost:8080/api/articles/2/categories"
          }
        }
      },
      {
        "title": "New Title1",
        "publishTime": "2018-08-01T00:00:00",
        "lmt": "2019-01-22T15:41:20",
        "_links": {
          "self": {
            "href": "http://localhost:8080/api/articles/3"
          },
          "article": {
            "href": "http://localhost:8080/api/articles/3"
          },
          "categories": {
            "href": "http://localhost:8080/api/articles/3/categories"
          }
        }
      },
      {
        "title": "Linux之父Linus的8个趣闻轶事",
        "publishTime": "2018-08-01T00:00:00",
        "lmt": "2019-01-22T14:45:34",
        "_links": {
          "self": {
            "href": "http://localhost:8080/api/articles/4"
          },
          "article": {
            "href": "http://localhost:8080/api/articles/4"
          },
          "categories": {
            "href": "http://localhost:8080/api/articles/4/categories"
          }
        }
      },
      {
        "title": "Wangbo Niu Bi nm nnn nnn nn",
        "publishTime": "2018-08-01T00:00:00",
        "lmt": "2019-01-22T14:46:02",
        "_links": {
          "self": {
            "href": "http://localhost:8080/api/articles/5"
          },
          "article": {
            "href": "http://localhost:8080/api/articles/5"
          },
          "categories": {
            "href": "http://localhost:8080/api/articles/5/categories"
          }
        }
      },
      {
        "title": "Wangbo Niu Bi",
        "publishTime": "2018-08-01T00:00:00",
        "lmt": "2019-01-22T15:04:54",
        "_links": {
          "self": {
            "href": "http://localhost:8080/api/articles/6"
          },
          "article": {
            "href": "http://localhost:8080/api/articles/6"
          },
          "categories": {
            "href": "http://localhost:8080/api/articles/6/categories"
          }
        }
      },
      {
        "title": "Wangbo Niu Bi",
        "publishTime": "2018-08-01T00:00:00",
        "lmt": "2019-01-22T15:04:55",
        "_links": {
          "self": {
            "href": "http://localhost:8080/api/articles/7"
          },
          "article": {
            "href": "http://localhost:8080/api/articles/7"
          },
          "categories": {
            "href": "http://localhost:8080/api/articles/7/categories"
          }
        }
      },
      {
        "title": "New Title d dfe fee feef ",
        "publishTime": "2018-08-01T00:00:00",
        "lmt": "2019-01-22T16:02:05",
        "_links": {
          "self": {
            "href": "http://localhost:8080/api/articles/8"
          },
          "article": {
            "href": "http://localhost:8080/api/articles/8"
          },
          "categories": {
            "href": "http://localhost:8080/api/articles/8/categories"
          }
        }
      },
      {
        "title": "Some Title",
        "publishTime": "2018-08-01T00:00:00",
        "lmt": "2019-01-22T15:31:19",
        "_links": {
          "self": {
            "href": "http://localhost:8080/api/articles/9"
          },
          "article": {
            "href": "http://localhost:8080/api/articles/9"
          },
          "categories": {
            "href": "http://localhost:8080/api/articles/9/categories"
          }
        }
      },
      {
        "title": "Some Title",
        "publishTime": "2018-08-01T00:00:00",
        "lmt": "2018-08-01T00:00:00",
        "_links": {
          "self": {
            "href": "http://localhost:8080/api/articles/10"
          },
          "article": {
            "href": "http://localhost:8080/api/articles/10"
          },
          "categories": {
            "href": "http://localhost:8080/api/articles/10/categories"
          }
        }
      },
      {
        "title": "Some1 Title",
        "publishTime": "2018-08-01T00:00:00",
        "lmt": "2018-08-01T00:00:00",
        "_links": {
          "self": {
            "href": "http://localhost:8080/api/articles/11"
          },
          "article": {
            "href": "http://localhost:8080/api/articles/11"
          },
          "categories": {
            "href": "http://localhost:8080/api/articles/11/categories"
          }
        }
      },
      {
        "title": "Linux之父Linus的8个趣闻轶事",
        "publishTime": "2018-08-01T00:00:00",
        "lmt": "2018-08-15T13:58:18",
        "_links": {
          "self": {
            "href": "http://localhost:8080/api/articles/13"
          },
          "article": {
            "href": "http://localhost:8080/api/articles/13"
          },
          "categories": {
            "href": "http://localhost:8080/api/articles/13/categories"
          }
        }
      },
      {
        "title": "安·兰德和她创造的世界",
        "publishTime": "2018-08-01T00:00:00",
        "lmt": "2018-08-15T13:58:18",
        "_links": {
          "self": {
            "href": "http://localhost:8080/api/articles/14"
          },
          "article": {
            "href": "http://localhost:8080/api/articles/14"
          },
          "categories": {
            "href": "http://localhost:8080/api/articles/14/categories"
          }
        }
      },
      {
        "title": "New Title1",
        "publishTime": "2018-08-01T00:00:00",
        "lmt": "2019-01-22T15:41:20",
        "_links": {
          "self": {
            "href": "http://localhost:8080/api/articles/15"
          },
          "article": {
            "href": "http://localhost:8080/api/articles/15"
          },
          "categories": {
            "href": "http://localhost:8080/api/articles/15/categories"
          }
        }
      },
      {
        "title": "Linux之父Linus的8个趣闻轶事",
        "publishTime": "2018-08-01T00:00:00",
        "lmt": "2019-01-22T14:45:34",
        "_links": {
          "self": {
            "href": "http://localhost:8080/api/articles/16"
          },
          "article": {
            "href": "http://localhost:8080/api/articles/16"
          },
          "categories": {
            "href": "http://localhost:8080/api/articles/16/categories"
          }
        }
      },
      {
        "title": "Wangbo Niu Bi nm nnn nnn nn",
        "publishTime": "2018-08-01T00:00:00",
        "lmt": "2019-01-22T14:46:02",
        "_links": {
          "self": {
            "href": "http://localhost:8080/api/articles/17"
          },
          "article": {
            "href": "http://localhost:8080/api/articles/17"
          },
          "categories": {
            "href": "http://localhost:8080/api/articles/17/categories"
          }
        }
      },
      {
        "title": "Wangbo Niu Bi",
        "publishTime": "2018-08-01T00:00:00",
        "lmt": "2019-01-22T15:04:54",
        "_links": {
          "self": {
            "href": "http://localhost:8080/api/articles/18"
          },
          "article": {
            "href": "http://localhost:8080/api/articles/18"
          },
          "categories": {
            "href": "http://localhost:8080/api/articles/18/categories"
          }
        }
      },
      {
        "title": "Wangbo Niu Bi",
        "publishTime": "2018-08-01T00:00:00",
        "lmt": "2019-01-22T15:04:55",
        "_links": {
          "self": {
            "href": "http://localhost:8080/api/articles/19"
          },
          "article": {
            "href": "http://localhost:8080/api/articles/19"
          },
          "categories": {
            "href": "http://localhost:8080/api/articles/19/categories"
          }
        }
      },
      {
        "title": "New Title d dfe fee feef ",
        "publishTime": "2018-08-01T00:00:00",
        "lmt": "2019-01-22T16:02:05",
        "_links": {
          "self": {
            "href": "http://localhost:8080/api/articles/20"
          },
          "article": {
            "href": "http://localhost:8080/api/articles/20"
          },
          "categories": {
            "href": "http://localhost:8080/api/articles/20/categories"
          }
        }
      },
      {
        "title": "Some Title",
        "publishTime": "2018-08-01T00:00:00",
        "lmt": "2019-01-22T15:31:19",
        "_links": {
          "self": {
            "href": "http://localhost:8080/api/articles/21"
          },
          "article": {
            "href": "http://localhost:8080/api/articles/21"
          },
          "categories": {
            "href": "http://localhost:8080/api/articles/21/categories"
          }
        }
      }
    ]
  },
  "_links": {
    "first": {
      "href": "http://localhost:8080/api/articles?page=0&size=20"
    },
    "self": {
      "href": "http://localhost:8080/api/articles{?page,size,sort}",
      "templated": true
    },
    "next": {
      "href": "http://localhost:8080/api/articles?page=1&size=20"
    },
    "last": {
      "href": "http://localhost:8080/api/articles?page=79&size=20"
    },
    "profile": {
      "href": "http://localhost:8080/api/profile/articles"
    }
  },
  "page": {
    "size": 20,
    "totalElements": 1588,
    "totalPages": 80,
    "number": 0
  }
}